[gd_scene load_steps=3 format=2]

[ext_resource path="res://GFX/Ground/earth_wall_right_bottom_corner.png" type="Texture" id=1]

[sub_resource type="RectangleShape2D" id=1]
extents = Vector2( 800, 2900 )

[node name="Wall" type="Node2D"]
scale = Vector2( 0.05, 0.05 )

[node name="EarthWallRightBottomCorner" type="Sprite" parent="."]
position = Vector2( -2.27374e-13, 1.19209e-07 )
texture = ExtResource( 1 )

[node name="StaticBody2D" type="StaticBody2D" parent="EarthWallRightBottomCorner"]
collision_mask = 2

[node name="CollisionShape2D" type="CollisionShape2D" parent="EarthWallRightBottomCorner/StaticBody2D"]
visible = false
position = Vector2( 4.54747e-12, 0.000168085 )
scale = Vector2( 0.999999, 0.999999 )
shape = SubResource( 1 )
